{
    "3rdparty": {
        "extensions": {
            "cjpalhdlnbpafiamejdnhcphjbkeiagm": {
                "adminSettings": "{\"userSettings\":{\"webrtcIPAddressHidden\":true},\"selectedFilterLists\":[\"RUS-0\",\"RUS-2\",\"plowe-0\",\"fanboy-annoyance\",\"fanboy-cookiemonster\",\"fanboy-thirdparty_social\",\"malware-1\",\"malware-0\",\"easyprivacy\",\"easylist\",\"ublock-unbreak\",\"ublock-abuse\",\"ublock-privacy\",\"ublock-badware\",\"ublock-filters\",\"user-filters\"]}"
            }
        }
    }
}