{
    "extensions": {
        "pinned_extension_migration": true,
        "pinned_extensions": [
            "cjpalhdlnbpafiamejdnhcphjbkeiagm",
            "ogfcmafjalglgifnmanfmnieipoejdcf",
            "igeehkedfibbnhbfponhjjplpkeomghi"
        ]
    }
}